Healthcare Snowflake Quickstart
…
Time, serum_creatine, ejection_fraction, and age seem to have the best predictive values for survival.

Prediction on training data

final_fit_lasso <- fit(final_lasso, data = hf_train)

predictions_lasso <- predict(final_fit_lasso, hf_test, type = "prob")
predictions_lasso

# A tibble: 60 × 2
   .pred_0 .pred_1
     <dbl>   <dbl>
 1  0.322    0.678
 2  0.0938   0.906
 3  0.198    0.802
 4  0.405    0.595
 5  0.458    0.542
 6  0.390    0.610
 7  0.276    0.724
 8  0.502    0.498
 9  0.854    0.146
10  0.365    0.635
# ℹ 50 more rows
…
